Uploadfilecarname,CarName,Startdate,Region,Acceptedprice,AcceptedTime,Duration,Ishistory
B2,B2_Economy,17/06/2019,Auckland Airport,36.29,6/11/19 12:08 PM,28,NULL
B2,B2_Economy,24/06/2019,Auckland Airport,36.57,6/11/19 12:08 PM,28,NULL
B2,B2_Economy,10/06/2019,Auckland Airport,37.17,6/11/19 12:08 PM,6,NULL
B2,B2_Economy,10/06/2019,Auckland Airport,37.26,6/11/19 12:08 PM,7,NULL
B2,B2_Economy,17/06/2019,Auckland Airport,37.29,6/11/19 12:08 PM,14,NULL
B2,B2_Economy,24/06/2019,Auckland Airport,37.57,6/11/19 12:08 PM,14,NULL
B2,B2_Economy,10/06/2019,Auckland Airport,38.11,6/11/19 12:08 PM,28,NULL
B2,B2_Economy,10/06/2019,Auckland Airport,39.11,6/11/19 12:08 PM,14,NULL
B2,B2_Economy,19/08/2019,Auckland Airport,40.4,6/11/19 12:08 PM,28,NULL
B2,B2_Economy,26/08/2019,Auckland Airport,40.4,6/11/19 12:08 PM,28,NULL
B2,B2_Economy,10/06/2019,Auckland Airport,40.52,6/11/19 12:08 PM,4,NULL
B2,B2_Economy,12/08/2019,Auckland Airport,40.6,6/11/19 12:08 PM,28,NULL
B2,B2_Economy,05/08/2019,Auckland Airport,40.66,6/11/19 12:08 PM,28,NULL
B2,B2_Economy,08/07/2019,Auckland Airport,40.92,6/11/19 12:08 PM,28,NULL
B2,B2_Economy,26/08/2019,Auckland Airport,41.4,6/11/19 12:08 PM,14,NULL
B2,B2_Economy,19/08/2019,Auckland Airport,41.4,6/11/19 12:08 PM,14,NULL
B2,B2_Economy,29/07/2019,Auckland Airport,41.5,6/11/19 12:08 PM,28,NULL
B2,B2_Economy,12/08/2019,Auckland Airport,41.6,6/11/19 12:08 PM,14,NULL
B2,B2_Economy,05/08/2019,Auckland Airport,41.66,6/11/19 12:08 PM,14,NULL
B2,B2_Economy,08/07/2019,Auckland Airport,41.92,6/11/19 12:08 PM,14,NULL
B2,B2_Economy,01/07/2019,Auckland Airport,41.95,6/11/19 12:08 PM,28,NULL
B2,B2_Economy,17/06/2019,Auckland Airport,42.11,6/11/19 12:08 PM,6,NULL
B2,B2_Economy,15/07/2019,Auckland Airport,42.14,6/11/19 12:08 PM,28,NULL
B2,B2_Economy,10/06/2019,Auckland Airport,42.18,6/11/19 12:08 PM,3,NULL
B2,B2_Economy,29/07/2019,Auckland Airport,42.5,6/11/19 12:08 PM,14,NULL
B2,B2_Economy,17/06/2019,Auckland Airport,42.95,6/11/19 12:08 PM,7,NULL
B2,B2_Economy,01/07/2019,Auckland Airport,42.95,6/11/19 12:08 PM,14,NULL
B2,B2_Economy,17/06/2019,Auckland Airport,43.06,6/11/19 12:08 PM,4,NULL
B2,B2_Economy,15/07/2019,Auckland Airport,43.14,6/11/19 12:08 PM,14,NULL
B2,B2_Economy,19/08/2019,Auckland Airport,43.23,6/11/19 12:08 PM,7,NULL
B2,B2_Economy,26/08/2019,Auckland Airport,43.23,6/11/19 12:08 PM,7,NULL
B2,B2_Economy,24/06/2019,Auckland Airport,43.37,6/11/19 12:08 PM,7,NULL
B2,B2_Economy,12/08/2019,Auckland Airport,43.52,6/11/19 12:08 PM,7,NULL
B2,B2_Economy,05/08/2019,Auckland Airport,43.63,6/11/19 12:08 PM,7,NULL
B2,B2_Economy,09/09/2019,Auckland Airport,44.22,6/11/19 12:08 PM,28,NULL
B2,B2_Economy,08/07/2019,Auckland Airport,44.32,6/11/19 12:08 PM,4,NULL
B2,B2_Economy,05/08/2019,Auckland Airport,44.35,6/11/19 12:08 PM,6,NULL
B2,B2_Economy,12/08/2019,Auckland Airport,44.45,6/11/19 12:08 PM,6,NULL
B2,B2_Economy,26/08/2019,Auckland Airport,44.85,6/11/19 12:08 PM,6,NULL
B2,B2_Economy,19/08/2019,Auckland Airport,44.91,6/11/19 12:08 PM,6,NULL
B2,B2_Economy,29/07/2019,Auckland Airport,45.02,6/11/19 12:08 PM,7,NULL
B2,B2_Economy,22/07/2019,Auckland Airport,45.05,6/11/19 12:08 PM,28,NULL
B2,B2_Economy,09/09/2019,Auckland Airport,45.22,6/11/19 12:08 PM,14,NULL
B2,B2_Economy,24/06/2019,Auckland Airport,45.24,6/11/19 12:08 PM,6,NULL
B2,B2_Economy,01/07/2019,Auckland Airport,45.62,6/11/19 12:08 PM,4,NULL
B2,B2_Economy,17/06/2019,Auckland Airport,45.66,6/11/19 12:08 PM,3,NULL
B2,B2_Economy,02/09/2019,Auckland Airport,45.97,6/11/19 12:08 PM,28,NULL
B2,B2_Economy,29/07/2019,Auckland Airport,45.98,6/11/19 12:08 PM,6,NULL
B2,B2_Economy,22/07/2019,Auckland Airport,46.05,6/11/19 12:08 PM,14,NULL
B2,B2_Economy,15/07/2019,Auckland Airport,46.06,6/11/19 12:08 PM,4,NULL
B2,B2_Economy,08/07/2019,Auckland Airport,46.17,6/11/19 12:08 PM,3,NULL
B2,B2_Economy,29/07/2019,Auckland Airport,46.52,6/11/19 12:08 PM,4,NULL
B2,B2_Economy,08/07/2019,Auckland Airport,46.78,6/11/19 12:08 PM,7,NULL
B2,B2_Economy,01/07/2019,Auckland Airport,46.82,6/11/19 12:08 PM,3,NULL
B2,B2_Economy,22/07/2019,Auckland Airport,46.95,6/11/19 12:08 PM,4,NULL
B2,B2_Economy,02/09/2019,Auckland Airport,46.97,6/11/19 12:08 PM,14,NULL
B2,B2_Economy,15/07/2019,Auckland Airport,47.3,6/11/19 12:08 PM,7,NULL
B2,B2_Economy,15/07/2019,Auckland Airport,47.31,6/11/19 12:08 PM,3,NULL
B2,B2_Economy,09/09/2019,Auckland Airport,47.36,6/11/19 12:08 PM,4,NULL
B2,B2_Economy,12/08/2019,Auckland Airport,47.66,6/11/19 12:08 PM,4,NULL
B2,B2_Economy,01/07/2019,Auckland Airport,47.69,6/11/19 12:08 PM,7,NULL
B2,B2_Economy,08/07/2019,Auckland Airport,47.93,6/11/19 12:08 PM,6,NULL
B2,B2_Economy,05/08/2019,Auckland Airport,48.02,6/11/19 12:08 PM,4,NULL
B2,B2_Economy,15/07/2019,Auckland Airport,48.22,6/11/19 12:08 PM,6,NULL
B2,B2_Economy,01/07/2019,Auckland Airport,48.5,6/11/19 12:08 PM,6,NULL
B2,B2_Economy,16/09/2019,Auckland Airport,48.5,6/11/19 12:08 PM,4,NULL
B2,B2_Economy,26/08/2019,Auckland Airport,48.51,6/11/19 12:08 PM,4,NULL
B2,B2_Economy,19/08/2019,Auckland Airport,48.57,6/11/19 12:08 PM,4,NULL
B2,B2_Economy,02/09/2019,Auckland Airport,48.65,6/11/19 12:08 PM,4,NULL
B2,B2_Economy,29/07/2019,Auckland Airport,48.89,6/11/19 12:08 PM,3,NULL
B2,B2_Economy,15/07/2019,Auckland Airport,49.09,6/11/19 12:08 PM,2,NULL
B2,B2_Economy,22/07/2019,Auckland Airport,49.28,6/11/19 12:08 PM,3,NULL
B2,B2_Economy,10/06/2019,Auckland Airport,49.48,6/11/19 12:08 PM,2,NULL
B2,B2_Economy,05/08/2019,Auckland Airport,49.65,6/11/19 12:08 PM,3,NULL
B2,B2_Economy,12/08/2019,Auckland Airport,49.73,6/11/19 12:08 PM,3,NULL
B2,B2_Economy,12/08/2019,Auckland Airport,49.74,6/11/19 12:08 PM,2,NULL
B2,B2_Economy,05/08/2019,Auckland Airport,49.77,6/11/19 12:08 PM,2,NULL
B2,B2_Economy,22/07/2019,Auckland Airport,49.77,6/11/19 12:08 PM,7,NULL
B2,B2_Economy,24/06/2019,Auckland Airport,49.93,6/11/19 12:08 PM,4,NULL
B2,B2_Economy,08/07/2019,Auckland Airport,50.15,6/11/19 12:08 PM,2,NULL
B2,B2_Economy,09/09/2019,Auckland Airport,50.15,6/11/19 12:08 PM,3,NULL
B2,B2_Economy,16/09/2019,Auckland Airport,50.17,6/11/19 12:08 PM,3,NULL
B2,B2_Economy,01/07/2019,Auckland Airport,50.29,6/11/19 12:08 PM,2,NULL
B2,B2_Economy,17/06/2019,Auckland Airport,50.56,6/11/19 12:08 PM,2,NULL
B2,B2_Economy,26/08/2019,Auckland Airport,50.56,6/11/19 12:08 PM,3,NULL
B2,B2_Economy,16/09/2019,Auckland Airport,50.65,6/11/19 12:08 PM,28,NULL
B2,B2_Economy,19/08/2019,Auckland Airport,50.67,6/11/19 12:08 PM,3,NULL
B2,B2_Economy,22/07/2019,Auckland Airport,50.77,6/11/19 12:08 PM,6,NULL
B2,B2_Economy,29/07/2019,Auckland Airport,50.8,6/11/19 12:08 PM,2,NULL
B2,B2_Economy,02/09/2019,Auckland Airport,50.82,6/11/19 12:08 PM,3,NULL
B2,B2_Economy,09/09/2019,Auckland Airport,51.15,6/11/19 12:08 PM,7,NULL
B2,B2_Economy,26/08/2019,Auckland Airport,51.3,6/11/19 12:08 PM,2,NULL
B2,B2_Economy,02/09/2019,Auckland Airport,51.46,6/11/19 12:08 PM,7,NULL
B2,B2_Economy,22/07/2019,Auckland Airport,51.49,6/11/19 12:08 PM,2,NULL
B2,B2_Economy,02/09/2019,Auckland Airport,51.65,6/11/19 12:08 PM,2,NULL
B2,B2_Economy,16/09/2019,Auckland Airport,51.65,6/11/19 12:08 PM,14,NULL
B2,B2_Economy,19/08/2019,Auckland Airport,51.71,6/11/19 12:08 PM,2,NULL
B2,B2_Economy,23/09/2019,Auckland Airport,52.21,6/11/19 12:08 PM,4,NULL
B2,B2_Economy,02/09/2019,Auckland Airport,52.45,6/11/19 12:08 PM,6,NULL
B2,B2_Economy,16/09/2019,Auckland Airport,52.78,6/11/19 12:08 PM,7,NULL
B2,B2_Economy,23/09/2019,Auckland Airport,53.11,6/11/19 12:08 PM,28,NULL
B2,B2_Economy,09/09/2019,Auckland Airport,53.21,6/11/19 12:08 PM,6,NULL
B2,B2_Economy,16/09/2019,Auckland Airport,53.22,6/11/19 12:08 PM,6,NULL
B2,B2_Economy,07/10/2019,Auckland Airport,53.74,6/11/19 12:08 PM,28,NULL
B2,B2_Economy,23/09/2019,Auckland Airport,54.11,6/11/19 12:08 PM,14,NULL
B2,B2_Economy,24/06/2019,Auckland Airport,54.24,6/11/19 12:08 PM,3,NULL
B2,B2_Economy,23/09/2019,Auckland Airport,54.74,6/11/19 12:08 PM,3,NULL
B2,B2_Economy,07/10/2019,Auckland Airport,54.74,6/11/19 12:08 PM,14,NULL
B2,B2_Economy,30/09/2019,Auckland Airport,54.86,6/11/19 12:08 PM,4,NULL
B2,B2_Economy,16/09/2019,Auckland Airport,54.88,6/11/19 12:08 PM,2,NULL
B2,B2_Economy,30/09/2019,Auckland Airport,55.73,6/11/19 12:08 PM,28,NULL
B2,B2_Economy,30/09/2019,Auckland Airport,56.52,6/11/19 12:08 PM,3,NULL
B2,B2_Economy,30/09/2019,Auckland Airport,56.73,6/11/19 12:08 PM,14,NULL
B2,B2_Economy,07/10/2019,Auckland Airport,56.91,6/11/19 12:08 PM,3,NULL
B2,B2_Economy,09/09/2019,Auckland Airport,57.37,6/11/19 12:08 PM,2,NULL
B2,B2_Economy,23/09/2019,Auckland Airport,58.13,6/11/19 12:08 PM,7,NULL
B2,B2_Economy,07/10/2019,Auckland Airport,59.06,6/11/19 12:08 PM,4,NULL
B2,B2_Economy,30/09/2019,Auckland Airport,59.16,6/11/19 12:08 PM,2,NULL
B2,B2_Economy,23/09/2019,Auckland Airport,59.18,6/11/19 12:08 PM,6,NULL
B2,B2_Economy,24/06/2019,Auckland Airport,60.98,6/11/19 12:08 PM,2,NULL
B2,B2_Economy,23/09/2019,Auckland Airport,61.26,6/11/19 12:08 PM,2,NULL
B2,B2_Economy,30/09/2019,Auckland Airport,63.32,6/11/19 12:08 PM,7,NULL
B2,B2_Economy,07/10/2019,Auckland Airport,63.32,6/11/19 12:08 PM,7,NULL
B2,B2_Economy,07/10/2019,Auckland Airport,64.86,6/11/19 12:08 PM,6,NULL
B2,B2_Economy,07/10/2019,Auckland Airport,67.06,6/11/19 12:08 PM,2,NULL
B2,B2_Economy,30/09/2019,Auckland Airport,67.61,6/11/19 12:08 PM,6,NULL
B2,B2_Economy,10/06/2019,Auckland Airport,69.78,6/11/19 12:08 PM,1,NULL
B2,B2_Economy,29/07/2019,Auckland Airport,76.97,6/11/19 12:08 PM,1,NULL
B2,B2_Economy,02/09/2019,Auckland Airport,77.81,6/11/19 12:08 PM,1,NULL
B2,B2_Economy,26/08/2019,Auckland Airport,78.22,6/11/19 12:08 PM,1,NULL
B2,B2_Economy,19/08/2019,Auckland Airport,78.77,6/11/19 12:08 PM,1,NULL
B2,B2_Economy,05/08/2019,Auckland Airport,78.77,6/11/19 12:08 PM,1,NULL
B2,B2_Economy,22/07/2019,Auckland Airport,79.9,6/11/19 12:08 PM,1,NULL
B2,B2_Economy,12/08/2019,Auckland Airport,80.83,6/11/19 12:08 PM,1,NULL
B2,B2_Economy,15/07/2019,Auckland Airport,80.88,6/11/19 12:08 PM,1,NULL
B2,B2_Economy,17/06/2019,Auckland Airport,82.2,6/11/19 12:08 PM,1,NULL
B2,B2_Economy,16/09/2019,Auckland Airport,82.2,6/11/19 12:08 PM,1,NULL
B2,B2_Economy,09/09/2019,Auckland Airport,82.2,6/11/19 12:08 PM,1,NULL
B2,B2_Economy,01/07/2019,Auckland Airport,82.89,6/11/19 12:08 PM,1,NULL
B2,B2_Economy,08/07/2019,Auckland Airport,84.52,6/11/19 12:08 PM,1,NULL
B2,B2_Economy,23/09/2019,Auckland Airport,85.25,6/11/19 12:08 PM,1,NULL
B2,B2_Economy,24/06/2019,Auckland Airport,86.82,6/11/19 12:08 PM,1,NULL
B2,B2_Economy,07/10/2019,Auckland Airport,96.1,6/11/19 12:08 PM,1,NULL
B2,B2_Economy,30/09/2019,Auckland Airport,96.2,6/11/19 12:08 PM,1,NULL
J,J_Intermediate 4WD,10/06/2019,Auckland Airport,76.28,6/11/19 12:08 PM,28,NULL
J,J_Intermediate 4WD,10/06/2019,Auckland Airport,77.28,6/11/19 12:08 PM,14,NULL
J,J_Intermediate 4WD,02/09/2019,Auckland Airport,77.43,6/11/19 12:08 PM,28,NULL
J,J_Intermediate 4WD,19/08/2019,Auckland Airport,77.66,6/11/19 12:08 PM,28,NULL
J,J_Intermediate 4WD,26/08/2019,Auckland Airport,77.66,6/11/19 12:08 PM,28,NULL
J,J_Intermediate 4WD,05/08/2019,Auckland Airport,77.66,6/11/19 12:08 PM,28,NULL
J,J_Intermediate 4WD,12/08/2019,Auckland Airport,77.66,6/11/19 12:08 PM,28,NULL
J,J_Intermediate 4WD,02/09/2019,Auckland Airport,78.43,6/11/19 12:08 PM,14,NULL
J,J_Intermediate 4WD,26/08/2019,Auckland Airport,78.66,6/11/19 12:08 PM,14,NULL
J,J_Intermediate 4WD,19/08/2019,Auckland Airport,78.66,6/11/19 12:08 PM,14,NULL
J,J_Intermediate 4WD,12/08/2019,Auckland Airport,78.66,6/11/19 12:08 PM,14,NULL
J,J_Intermediate 4WD,05/08/2019,Auckland Airport,78.66,6/11/19 12:08 PM,14,NULL
J,J_Intermediate 4WD,29/07/2019,Auckland Airport,79.04,6/11/19 12:08 PM,28,NULL
J,J_Intermediate 4WD,29/07/2019,Auckland Airport,80.04,6/11/19 12:08 PM,14,NULL
J,J_Intermediate 4WD,09/09/2019,Auckland Airport,82.06,6/11/19 12:08 PM,28,NULL
J,J_Intermediate 4WD,22/07/2019,Auckland Airport,82.18,6/11/19 12:08 PM,28,NULL
J,J_Intermediate 4WD,10/06/2019,Auckland Airport,82.21,6/11/19 12:08 PM,7,NULL
J,J_Intermediate 4WD,10/06/2019,Auckland Airport,82.35,6/11/19 12:08 PM,6,NULL
J,J_Intermediate 4WD,12/08/2019,Auckland Airport,82.82,6/11/19 12:08 PM,6,NULL
J,J_Intermediate 4WD,02/09/2019,Auckland Airport,82.82,6/11/19 12:08 PM,7,NULL
J,J_Intermediate 4WD,24/06/2019,Auckland Airport,82.94,6/11/19 12:08 PM,6,NULL
J,J_Intermediate 4WD,09/09/2019,Auckland Airport,83.06,6/11/19 12:08 PM,14,NULL
J,J_Intermediate 4WD,22/07/2019,Auckland Airport,83.18,6/11/19 12:08 PM,14,NULL
J,J_Intermediate 4WD,15/07/2019,Auckland Airport,83.63,6/11/19 12:08 PM,28,NULL
J,J_Intermediate 4WD,05/08/2019,Auckland Airport,83.64,6/11/19 12:08 PM,6,NULL
J,J_Intermediate 4WD,19/08/2019,Auckland Airport,83.64,6/11/19 12:08 PM,6,NULL
J,J_Intermediate 4WD,26/08/2019,Auckland Airport,83.64,6/11/19 12:08 PM,6,NULL
J,J_Intermediate 4WD,26/08/2019,Auckland Airport,83.94,6/11/19 12:08 PM,7,NULL
J,J_Intermediate 4WD,19/08/2019,Auckland Airport,83.94,6/11/19 12:08 PM,7,NULL
J,J_Intermediate 4WD,05/08/2019,Auckland Airport,83.94,6/11/19 12:08 PM,7,NULL
J,J_Intermediate 4WD,12/08/2019,Auckland Airport,83.94,6/11/19 12:08 PM,7,NULL
J,J_Intermediate 4WD,29/07/2019,Auckland Airport,84.07,6/11/19 12:08 PM,6,NULL
J,J_Intermediate 4WD,01/07/2019,Auckland Airport,84.1,6/11/19 12:08 PM,28,NULL
J,J_Intermediate 4WD,16/09/2019,Auckland Airport,84.26,6/11/19 12:08 PM,28,NULL
J,J_Intermediate 4WD,08/07/2019,Auckland Airport,84.31,6/11/19 12:08 PM,28,NULL
J,J_Intermediate 4WD,22/07/2019,Auckland Airport,84.58,6/11/19 12:08 PM,6,NULL
J,J_Intermediate 4WD,15/07/2019,Auckland Airport,84.63,6/11/19 12:08 PM,14,NULL
J,J_Intermediate 4WD,29/07/2019,Auckland Airport,84.87,6/11/19 12:08 PM,7,NULL
J,J_Intermediate 4WD,15/07/2019,Auckland Airport,85.03,6/11/19 12:08 PM,6,NULL
J,J_Intermediate 4WD,08/07/2019,Auckland Airport,85.06,6/11/19 12:08 PM,6,NULL
J,J_Intermediate 4WD,01/07/2019,Auckland Airport,85.1,6/11/19 12:08 PM,14,NULL
J,J_Intermediate 4WD,23/09/2019,Auckland Airport,85.12,6/11/19 12:08 PM,28,NULL
J,J_Intermediate 4WD,16/09/2019,Auckland Airport,85.26,6/11/19 12:08 PM,14,NULL
J,J_Intermediate 4WD,09/09/2019,Auckland Airport,85.29,6/11/19 12:08 PM,7,NULL
J,J_Intermediate 4WD,08/07/2019,Auckland Airport,85.31,6/11/19 12:08 PM,14,NULL
J,J_Intermediate 4WD,01/07/2019,Auckland Airport,85.48,6/11/19 12:08 PM,6,NULL
J,J_Intermediate 4WD,23/09/2019,Auckland Airport,86.12,6/11/19 12:08 PM,14,NULL
J,J_Intermediate 4WD,22/07/2019,Auckland Airport,86.64,6/11/19 12:08 PM,7,NULL
J,J_Intermediate 4WD,02/09/2019,Auckland Airport,87.19,6/11/19 12:08 PM,6,NULL
J,J_Intermediate 4WD,16/09/2019,Auckland Airport,88.06,6/11/19 12:08 PM,7,NULL
J,J_Intermediate 4WD,23/09/2019,Auckland Airport,88.43,6/11/19 12:08 PM,7,NULL
J,J_Intermediate 4WD,15/07/2019,Auckland Airport,89.67,6/11/19 12:08 PM,7,NULL
J,J_Intermediate 4WD,12/08/2019,Auckland Airport,90.18,6/11/19 12:08 PM,4,NULL
J,J_Intermediate 4WD,05/08/2019,Auckland Airport,90.34,6/11/19 12:08 PM,4,NULL
J,J_Intermediate 4WD,02/09/2019,Auckland Airport,90.47,6/11/19 12:08 PM,4,NULL
J,J_Intermediate 4WD,29/07/2019,Auckland Airport,90.48,6/11/19 12:08 PM,4,NULL
J,J_Intermediate 4WD,19/08/2019,Auckland Airport,90.73,6/11/19 12:08 PM,4,NULL
J,J_Intermediate 4WD,17/06/2019,Auckland Airport,91.36,6/11/19 12:08 PM,7,NULL
J,J_Intermediate 4WD,26/08/2019,Auckland Airport,91.38,6/11/19 12:08 PM,4,NULL
J,J_Intermediate 4WD,08/07/2019,Auckland Airport,91.73,6/11/19 12:08 PM,7,NULL
J,J_Intermediate 4WD,01/07/2019,Auckland Airport,92.11,6/11/19 12:08 PM,7,NULL
J,J_Intermediate 4WD,22/07/2019,Auckland Airport,92.19,6/11/19 12:08 PM,4,NULL
J,J_Intermediate 4WD,16/09/2019,Auckland Airport,92.2,6/11/19 12:08 PM,6,NULL
J,J_Intermediate 4WD,15/07/2019,Auckland Airport,92.58,6/11/19 12:08 PM,4,NULL
J,J_Intermediate 4WD,09/09/2019,Auckland Airport,92.7,6/11/19 12:08 PM,6,NULL
J,J_Intermediate 4WD,02/09/2019,Auckland Airport,93.26,6/11/19 12:08 PM,3,NULL
J,J_Intermediate 4WD,08/07/2019,Auckland Airport,93.86,6/11/19 12:08 PM,4,NULL
J,J_Intermediate 4WD,26/08/2019,Auckland Airport,94.08,6/11/19 12:08 PM,3,NULL
J,J_Intermediate 4WD,10/06/2019,Auckland Airport,94.33,6/11/19 12:08 PM,4,NULL
J,J_Intermediate 4WD,19/08/2019,Auckland Airport,94.41,6/11/19 12:08 PM,3,NULL
J,J_Intermediate 4WD,12/08/2019,Auckland Airport,94.82,6/11/19 12:08 PM,3,NULL
J,J_Intermediate 4WD,23/09/2019,Auckland Airport,95.42,6/11/19 12:08 PM,4,NULL
J,J_Intermediate 4WD,05/08/2019,Auckland Airport,95.79,6/11/19 12:08 PM,3,NULL
J,J_Intermediate 4WD,30/09/2019,Auckland Airport,96.03,6/11/19 12:08 PM,28,NULL
J,J_Intermediate 4WD,07/10/2019,Auckland Airport,96.03,6/11/19 12:08 PM,28,NULL
J,J_Intermediate 4WD,24/06/2019,Auckland Airport,96.13,6/11/19 12:08 PM,4,NULL
J,J_Intermediate 4WD,09/09/2019,Auckland Airport,96.5,6/11/19 12:08 PM,4,NULL
J,J_Intermediate 4WD,07/10/2019,Auckland Airport,97.03,6/11/19 12:08 PM,14,NULL
J,J_Intermediate 4WD,30/09/2019,Auckland Airport,97.03,6/11/19 12:08 PM,14,NULL
J,J_Intermediate 4WD,01/07/2019,Auckland Airport,97.19,6/11/19 12:08 PM,4,NULL
J,J_Intermediate 4WD,29/07/2019,Auckland Airport,97.24,6/11/19 12:08 PM,3,NULL
J,J_Intermediate 4WD,23/09/2019,Auckland Airport,97.34,6/11/19 12:08 PM,6,NULL
J,J_Intermediate 4WD,17/06/2019,Auckland Airport,97.51,6/11/19 12:08 PM,6,NULL
J,J_Intermediate 4WD,02/09/2019,Auckland Airport,97.97,6/11/19 12:08 PM,2,NULL
J,J_Intermediate 4WD,16/09/2019,Auckland Airport,98.01,6/11/19 12:08 PM,4,NULL
J,J_Intermediate 4WD,26/08/2019,Auckland Airport,98.53,6/11/19 12:08 PM,2,NULL
J,J_Intermediate 4WD,23/09/2019,Auckland Airport,99.58,6/11/19 12:08 PM,3,NULL
J,J_Intermediate 4WD,22/07/2019,Auckland Airport,99.76,6/11/19 12:08 PM,3,NULL
J,J_Intermediate 4WD,16/09/2019,Auckland Airport,99.88,6/11/19 12:08 PM,3,NULL
J,J_Intermediate 4WD,09/09/2019,Auckland Airport,99.88,6/11/19 12:08 PM,3,NULL
J,J_Intermediate 4WD,24/06/2019,Auckland Airport,100.44,6/11/19 12:08 PM,7,NULL
J,J_Intermediate 4WD,17/06/2019,Auckland Airport,100.65,6/11/19 12:08 PM,28,NULL
J,J_Intermediate 4WD,15/07/2019,Auckland Airport,100.69,6/11/19 12:08 PM,3,NULL
J,J_Intermediate 4WD,12/08/2019,Auckland Airport,101.41,6/11/19 12:08 PM,2,NULL
J,J_Intermediate 4WD,19/08/2019,Auckland Airport,101.42,6/11/19 12:08 PM,2,NULL
J,J_Intermediate 4WD,17/06/2019,Auckland Airport,101.65,6/11/19 12:08 PM,14,NULL
J,J_Intermediate 4WD,30/09/2019,Auckland Airport,101.88,6/11/19 12:08 PM,7,NULL
J,J_Intermediate 4WD,05/08/2019,Auckland Airport,101.94,6/11/19 12:08 PM,2,NULL
J,J_Intermediate 4WD,22/07/2019,Auckland Airport,102.65,6/11/19 12:08 PM,2,NULL
J,J_Intermediate 4WD,29/07/2019,Auckland Airport,102.94,6/11/19 12:08 PM,2,NULL
J,J_Intermediate 4WD,08/07/2019,Auckland Airport,103,6/11/19 12:08 PM,3,NULL
J,J_Intermediate 4WD,07/10/2019,Auckland Airport,103.88,6/11/19 12:08 PM,7,NULL
J,J_Intermediate 4WD,15/07/2019,Auckland Airport,105.3,6/11/19 12:08 PM,2,NULL
J,J_Intermediate 4WD,07/10/2019,Auckland Airport,106.74,6/11/19 12:08 PM,6,NULL
J,J_Intermediate 4WD,01/07/2019,Auckland Airport,107.39,6/11/19 12:08 PM,3,NULL
J,J_Intermediate 4WD,30/09/2019,Auckland Airport,108.18,6/11/19 12:08 PM,6,NULL
J,J_Intermediate 4WD,16/09/2019,Auckland Airport,109.26,6/11/19 12:08 PM,2,NULL
J,J_Intermediate 4WD,08/07/2019,Auckland Airport,109.4,6/11/19 12:08 PM,2,NULL
J,J_Intermediate 4WD,10/06/2019,Auckland Airport,109.46,6/11/19 12:08 PM,3,NULL
J,J_Intermediate 4WD,24/06/2019,Auckland Airport,110.48,6/11/19 12:08 PM,28,NULL
J,J_Intermediate 4WD,09/09/2019,Auckland Airport,111.34,6/11/19 12:08 PM,2,NULL
J,J_Intermediate 4WD,24/06/2019,Auckland Airport,111.48,6/11/19 12:08 PM,14,NULL
J,J_Intermediate 4WD,23/09/2019,Auckland Airport,114.23,6/11/19 12:08 PM,2,NULL
J,J_Intermediate 4WD,30/09/2019,Auckland Airport,114.82,6/11/19 12:08 PM,4,NULL
J,J_Intermediate 4WD,07/10/2019,Auckland Airport,115.63,6/11/19 12:08 PM,4,NULL
J,J_Intermediate 4WD,01/07/2019,Auckland Airport,115.99,6/11/19 12:08 PM,2,NULL
J,J_Intermediate 4WD,24/06/2019,Auckland Airport,117.48,6/11/19 12:08 PM,3,NULL
J,J_Intermediate 4WD,02/09/2019,Auckland Airport,121.82,6/11/19 12:08 PM,1,NULL
J,J_Intermediate 4WD,07/10/2019,Auckland Airport,123.76,6/11/19 12:08 PM,3,NULL
J,J_Intermediate 4WD,30/09/2019,Auckland Airport,123.76,6/11/19 12:08 PM,3,NULL
J,J_Intermediate 4WD,26/08/2019,Auckland Airport,129.7,6/11/19 12:08 PM,1,NULL
J,J_Intermediate 4WD,19/08/2019,Auckland Airport,130.13,6/11/19 12:08 PM,1,NULL
J,J_Intermediate 4WD,05/08/2019,Auckland Airport,130.58,6/11/19 12:08 PM,1,NULL
J,J_Intermediate 4WD,12/08/2019,Auckland Airport,130.71,6/11/19 12:08 PM,1,NULL
J,J_Intermediate 4WD,24/06/2019,Auckland Airport,133.44,6/11/19 12:08 PM,2,NULL
J,J_Intermediate 4WD,10/06/2019,Auckland Airport,134.69,6/11/19 12:08 PM,2,NULL
J,J_Intermediate 4WD,07/10/2019,Auckland Airport,136.17,6/11/19 12:08 PM,2,NULL
J,J_Intermediate 4WD,29/07/2019,Auckland Airport,137.54,6/11/19 12:08 PM,1,NULL
J,J_Intermediate 4WD,15/07/2019,Auckland Airport,137.62,6/11/19 12:08 PM,1,NULL
J,J_Intermediate 4WD,22/07/2019,Auckland Airport,141.87,6/11/19 12:08 PM,1,NULL
J,J_Intermediate 4WD,30/09/2019,Auckland Airport,142.16,6/11/19 12:08 PM,2,NULL
J,J_Intermediate 4WD,08/07/2019,Auckland Airport,142.4,6/11/19 12:08 PM,1,NULL
J,J_Intermediate 4WD,09/09/2019,Auckland Airport,143.66,6/11/19 12:08 PM,1,NULL
J,J_Intermediate 4WD,23/09/2019,Auckland Airport,146.96,6/11/19 12:08 PM,1,NULL
J,J_Intermediate 4WD,01/07/2019,Auckland Airport,149.65,6/11/19 12:08 PM,1,NULL
J,J_Intermediate 4WD,16/09/2019,Auckland Airport,151.98,6/11/19 12:08 PM,1,NULL
J,J_Intermediate 4WD,17/06/2019,Auckland Airport,158.14,6/11/19 12:08 PM,4,NULL
J,J_Intermediate 4WD,17/06/2019,Auckland Airport,162.77,6/11/19 12:08 PM,3,NULL
J,J_Intermediate 4WD,24/06/2019,Auckland Airport,166.63,6/11/19 12:08 PM,1,NULL
J,J_Intermediate 4WD,17/06/2019,Auckland Airport,169.36,6/11/19 12:08 PM,2,NULL
J,J_Intermediate 4WD,30/09/2019,Auckland Airport,174.81,6/11/19 12:08 PM,1,NULL
J,J_Intermediate 4WD,07/10/2019,Auckland Airport,176.57,6/11/19 12:08 PM,1,NULL
J,J_Intermediate 4WD,17/06/2019,Auckland Airport,181.94,6/11/19 12:08 PM,1,NULL
J,J_Intermediate 4WD,10/06/2019,Auckland Airport,195.17,6/11/19 12:08 PM,1,NULL
G,G_Compact SUV,15/07/2019,Auckland Airport,60.62,6/11/19 12:08 PM,28,NULL
G,G_Compact SUV,22/07/2019,Auckland Airport,60.88,6/11/19 12:08 PM,28,NULL
G,G_Compact SUV,15/07/2019,Auckland Airport,61.62,6/11/19 12:08 PM,14,NULL
G,G_Compact SUV,29/07/2019,Auckland Airport,61.82,6/11/19 12:08 PM,28,NULL
G,G_Compact SUV,22/07/2019,Auckland Airport,61.88,6/11/19 12:08 PM,14,NULL
G,G_Compact SUV,01/07/2019,Auckland Airport,62.34,6/11/19 12:08 PM,28,NULL
G,G_Compact SUV,29/07/2019,Auckland Airport,62.82,6/11/19 12:08 PM,14,NULL
G,G_Compact SUV,01/07/2019,Auckland Airport,63.34,6/11/19 12:08 PM,14,NULL
G,G_Compact SUV,26/08/2019,Auckland Airport,64.68,6/11/19 12:08 PM,28,NULL
G,G_Compact SUV,19/08/2019,Auckland Airport,64.92,6/11/19 12:08 PM,28,NULL
G,G_Compact SUV,08/07/2019,Auckland Airport,64.94,6/11/19 12:08 PM,28,NULL
G,G_Compact SUV,02/09/2019,Auckland Airport,65.23,6/11/19 12:08 PM,28,NULL
G,G_Compact SUV,12/08/2019,Auckland Airport,65.27,6/11/19 12:08 PM,28,NULL
G,G_Compact SUV,05/08/2019,Auckland Airport,65.45,6/11/19 12:08 PM,28,NULL
G,G_Compact SUV,26/08/2019,Auckland Airport,65.68,6/11/19 12:08 PM,14,NULL
G,G_Compact SUV,19/08/2019,Auckland Airport,65.92,6/11/19 12:08 PM,14,NULL
G,G_Compact SUV,08/07/2019,Auckland Airport,65.94,6/11/19 12:08 PM,14,NULL
G,G_Compact SUV,02/09/2019,Auckland Airport,66.23,6/11/19 12:08 PM,14,NULL
G,G_Compact SUV,12/08/2019,Auckland Airport,66.27,6/11/19 12:08 PM,14,NULL
G,G_Compact SUV,05/08/2019,Auckland Airport,66.45,6/11/19 12:08 PM,14,NULL
G,G_Compact SUV,22/07/2019,Auckland Airport,67.62,6/11/19 12:08 PM,6,NULL
G,G_Compact SUV,29/07/2019,Auckland Airport,68.12,6/11/19 12:08 PM,7,NULL
G,G_Compact SUV,22/07/2019,Auckland Airport,68.77,6/11/19 12:08 PM,7,NULL
G,G_Compact SUV,15/07/2019,Auckland Airport,68.86,6/11/19 12:08 PM,6,NULL
G,G_Compact SUV,29/07/2019,Auckland Airport,69.2,6/11/19 12:08 PM,6,NULL
G,G_Compact SUV,16/09/2019,Auckland Airport,69.67,6/11/19 12:08 PM,28,NULL
G,G_Compact SUV,15/07/2019,Auckland Airport,69.91,6/11/19 12:08 PM,7,NULL
G,G_Compact SUV,09/09/2019,Auckland Airport,70.55,6/11/19 12:08 PM,28,NULL
G,G_Compact SUV,16/09/2019,Auckland Airport,70.67,6/11/19 12:08 PM,14,NULL
G,G_Compact SUV,10/06/2019,Auckland Airport,70.87,6/11/19 12:08 PM,28,NULL
G,G_Compact SUV,01/07/2019,Auckland Airport,70.99,6/11/19 12:08 PM,6,NULL
G,G_Compact SUV,26/08/2019,Auckland Airport,71.28,6/11/19 12:08 PM,7,NULL
G,G_Compact SUV,02/09/2019,Auckland Airport,71.31,6/11/19 12:08 PM,7,NULL
G,G_Compact SUV,19/08/2019,Auckland Airport,71.52,6/11/19 12:08 PM,7,NULL
G,G_Compact SUV,09/09/2019,Auckland Airport,71.55,6/11/19 12:08 PM,14,NULL
G,G_Compact SUV,23/09/2019,Auckland Airport,71.75,6/11/19 12:08 PM,28,NULL
G,G_Compact SUV,12/08/2019,Auckland Airport,71.85,6/11/19 12:08 PM,7,NULL
G,G_Compact SUV,10/06/2019,Auckland Airport,71.87,6/11/19 12:08 PM,14,NULL
G,G_Compact SUV,05/08/2019,Auckland Airport,72.04,6/11/19 12:08 PM,7,NULL
G,G_Compact SUV,26/08/2019,Auckland Airport,72.04,6/11/19 12:08 PM,6,NULL
G,G_Compact SUV,12/08/2019,Auckland Airport,72.17,6/11/19 12:08 PM,6,NULL
G,G_Compact SUV,16/09/2019,Auckland Airport,72.29,6/11/19 12:08 PM,7,NULL
G,G_Compact SUV,19/08/2019,Auckland Airport,72.37,6/11/19 12:08 PM,6,NULL
G,G_Compact SUV,05/08/2019,Auckland Airport,72.6,6/11/19 12:08 PM,6,NULL
G,G_Compact SUV,23/09/2019,Auckland Airport,72.75,6/11/19 12:08 PM,14,NULL
G,G_Compact SUV,01/07/2019,Auckland Airport,73.08,6/11/19 12:08 PM,7,NULL
G,G_Compact SUV,08/07/2019,Auckland Airport,73.26,6/11/19 12:08 PM,6,NULL
G,G_Compact SUV,09/09/2019,Auckland Airport,73.42,6/11/19 12:08 PM,7,NULL
G,G_Compact SUV,22/07/2019,Auckland Airport,74.51,6/11/19 12:08 PM,4,NULL
G,G_Compact SUV,29/07/2019,Auckland Airport,74.68,6/11/19 12:08 PM,4,NULL
G,G_Compact SUV,02/09/2019,Auckland Airport,74.8,6/11/19 12:08 PM,6,NULL
G,G_Compact SUV,15/07/2019,Auckland Airport,75.35,6/11/19 12:08 PM,4,NULL
G,G_Compact SUV,08/07/2019,Auckland Airport,76.08,6/11/19 12:08 PM,7,NULL
G,G_Compact SUV,02/09/2019,Auckland Airport,76.45,6/11/19 12:08 PM,4,NULL
G,G_Compact SUV,12/08/2019,Auckland Airport,76.83,6/11/19 12:08 PM,4,NULL
G,G_Compact SUV,05/08/2019,Auckland Airport,77.15,6/11/19 12:08 PM,4,NULL
G,G_Compact SUV,23/09/2019,Auckland Airport,77.42,6/11/19 12:08 PM,7,NULL
G,G_Compact SUV,26/08/2019,Auckland Airport,77.87,6/11/19 12:08 PM,4,NULL
G,G_Compact SUV,19/08/2019,Auckland Airport,78.03,6/11/19 12:08 PM,4,NULL
G,G_Compact SUV,26/08/2019,Auckland Airport,78.96,6/11/19 12:08 PM,3,NULL
G,G_Compact SUV,02/09/2019,Auckland Airport,79.2,6/11/19 12:08 PM,3,NULL
G,G_Compact SUV,19/08/2019,Auckland Airport,79.26,6/11/19 12:08 PM,3,NULL
G,G_Compact SUV,16/09/2019,Auckland Airport,80.26,6/11/19 12:08 PM,6,NULL
G,G_Compact SUV,29/07/2019,Auckland Airport,80.96,6/11/19 12:08 PM,3,NULL
G,G_Compact SUV,01/07/2019,Auckland Airport,81.25,6/11/19 12:08 PM,4,NULL
G,G_Compact SUV,16/09/2019,Auckland Airport,81.26,6/11/19 12:08 PM,3,NULL
G,G_Compact SUV,16/09/2019,Auckland Airport,81.38,6/11/19 12:08 PM,4,NULL
G,G_Compact SUV,10/06/2019,Auckland Airport,81.42,6/11/19 12:08 PM,7,NULL
G,G_Compact SUV,10/06/2019,Auckland Airport,81.54,6/11/19 12:08 PM,6,NULL
G,G_Compact SUV,08/07/2019,Auckland Airport,81.58,6/11/19 12:08 PM,4,NULL
G,G_Compact SUV,12/08/2019,Auckland Airport,81.73,6/11/19 12:08 PM,3,NULL
G,G_Compact SUV,24/06/2019,Auckland Airport,81.74,6/11/19 12:08 PM,6,NULL
G,G_Compact SUV,09/09/2019,Auckland Airport,82.46,6/11/19 12:08 PM,6,NULL
G,G_Compact SUV,23/09/2019,Auckland Airport,82.48,6/11/19 12:08 PM,6,NULL
G,G_Compact SUV,23/09/2019,Auckland Airport,82.49,6/11/19 12:08 PM,4,NULL
G,G_Compact SUV,15/07/2019,Auckland Airport,82.5,6/11/19 12:08 PM,3,NULL
G,G_Compact SUV,07/10/2019,Auckland Airport,82.83,6/11/19 12:08 PM,28,NULL
G,G_Compact SUV,30/09/2019,Auckland Airport,82.93,6/11/19 12:08 PM,28,NULL
G,G_Compact SUV,05/08/2019,Auckland Airport,83.04,6/11/19 12:08 PM,3,NULL
G,G_Compact SUV,09/09/2019,Auckland Airport,83.68,6/11/19 12:08 PM,4,NULL
G,G_Compact SUV,07/10/2019,Auckland Airport,83.83,6/11/19 12:08 PM,14,NULL
G,G_Compact SUV,30/09/2019,Auckland Airport,83.93,6/11/19 12:08 PM,14,NULL
G,G_Compact SUV,09/09/2019,Auckland Airport,84.47,6/11/19 12:08 PM,3,NULL
G,G_Compact SUV,22/07/2019,Auckland Airport,84.5,6/11/19 12:08 PM,3,NULL
G,G_Compact SUV,17/06/2019,Auckland Airport,84.72,6/11/19 12:08 PM,28,NULL
G,G_Compact SUV,23/09/2019,Auckland Airport,85.15,6/11/19 12:08 PM,3,NULL
G,G_Compact SUV,17/06/2019,Auckland Airport,85.72,6/11/19 12:08 PM,14,NULL
G,G_Compact SUV,26/08/2019,Auckland Airport,85.93,6/11/19 12:08 PM,2,NULL
G,G_Compact SUV,22/07/2019,Auckland Airport,86.45,6/11/19 12:08 PM,2,NULL
G,G_Compact SUV,01/07/2019,Auckland Airport,87.14,6/11/19 12:08 PM,3,NULL
G,G_Compact SUV,17/06/2019,Auckland Airport,87.26,6/11/19 12:08 PM,7,NULL
G,G_Compact SUV,02/09/2019,Auckland Airport,88.13,6/11/19 12:08 PM,2,NULL
G,G_Compact SUV,17/06/2019,Auckland Airport,88.2,6/11/19 12:08 PM,6,NULL
G,G_Compact SUV,10/06/2019,Auckland Airport,88.31,6/11/19 12:08 PM,4,NULL
G,G_Compact SUV,07/10/2019,Auckland Airport,88.62,6/11/19 12:08 PM,7,NULL
G,G_Compact SUV,08/07/2019,Auckland Airport,88.67,6/11/19 12:08 PM,3,NULL
G,G_Compact SUV,30/09/2019,Auckland Airport,88.82,6/11/19 12:08 PM,7,NULL
G,G_Compact SUV,19/08/2019,Auckland Airport,88.98,6/11/19 12:08 PM,2,NULL
G,G_Compact SUV,07/10/2019,Auckland Airport,89.18,6/11/19 12:08 PM,6,NULL
G,G_Compact SUV,09/09/2019,Auckland Airport,89.21,6/11/19 12:08 PM,2,NULL
G,G_Compact SUV,15/07/2019,Auckland Airport,89.54,6/11/19 12:08 PM,2,NULL
G,G_Compact SUV,29/07/2019,Auckland Airport,89.58,6/11/19 12:08 PM,2,NULL
G,G_Compact SUV,07/10/2019,Auckland Airport,90.13,6/11/19 12:08 PM,4,NULL
G,G_Compact SUV,16/09/2019,Auckland Airport,90.22,6/11/19 12:08 PM,2,NULL
G,G_Compact SUV,05/08/2019,Auckland Airport,91.21,6/11/19 12:08 PM,2,NULL
G,G_Compact SUV,24/06/2019,Auckland Airport,91.34,6/11/19 12:08 PM,28,NULL
G,G_Compact SUV,24/06/2019,Auckland Airport,92.34,6/11/19 12:08 PM,14,NULL
G,G_Compact SUV,12/08/2019,Auckland Airport,92.78,6/11/19 12:08 PM,2,NULL
G,G_Compact SUV,01/07/2019,Auckland Airport,93.28,6/11/19 12:08 PM,2,NULL
G,G_Compact SUV,24/06/2019,Auckland Airport,93.29,6/11/19 12:08 PM,4,NULL
G,G_Compact SUV,23/09/2019,Auckland Airport,93.79,6/11/19 12:08 PM,2,NULL
G,G_Compact SUV,24/06/2019,Auckland Airport,93.8,6/11/19 12:08 PM,7,NULL
G,G_Compact SUV,07/10/2019,Auckland Airport,94.16,6/11/19 12:08 PM,3,NULL
G,G_Compact SUV,30/09/2019,Auckland Airport,94.16,6/11/19 12:08 PM,3,NULL
G,G_Compact SUV,08/07/2019,Auckland Airport,94.63,6/11/19 12:08 PM,2,NULL
G,G_Compact SUV,30/09/2019,Auckland Airport,95.63,6/11/19 12:08 PM,6,NULL
G,G_Compact SUV,30/09/2019,Auckland Airport,96.67,6/11/19 12:08 PM,4,NULL
G,G_Compact SUV,10/06/2019,Auckland Airport,99.35,6/11/19 12:08 PM,3,NULL
G,G_Compact SUV,10/06/2019,Auckland Airport,102.1,6/11/19 12:08 PM,2,NULL
G,G_Compact SUV,07/10/2019,Auckland Airport,102.95,6/11/19 12:08 PM,2,NULL
G,G_Compact SUV,30/09/2019,Auckland Airport,103.1,6/11/19 12:08 PM,2,NULL
G,G_Compact SUV,24/06/2019,Auckland Airport,110.1,6/11/19 12:08 PM,3,NULL
G,G_Compact SUV,02/09/2019,Auckland Airport,118.01,6/11/19 12:08 PM,1,NULL
G,G_Compact SUV,24/06/2019,Auckland Airport,119.38,6/11/19 12:08 PM,2,NULL
G,G_Compact SUV,29/07/2019,Auckland Airport,121.9,6/11/19 12:08 PM,1,NULL
G,G_Compact SUV,26/08/2019,Auckland Airport,123.03,6/11/19 12:08 PM,1,NULL
G,G_Compact SUV,19/08/2019,Auckland Airport,123.4,6/11/19 12:08 PM,1,NULL
G,G_Compact SUV,05/08/2019,Auckland Airport,126,6/11/19 12:08 PM,1,NULL
G,G_Compact SUV,17/06/2019,Auckland Airport,126.53,6/11/19 12:08 PM,4,NULL
G,G_Compact SUV,12/08/2019,Auckland Airport,127.22,6/11/19 12:08 PM,1,NULL
G,G_Compact SUV,15/07/2019,Auckland Airport,127.72,6/11/19 12:08 PM,1,NULL
G,G_Compact SUV,22/07/2019,Auckland Airport,128.46,6/11/19 12:08 PM,1,NULL
G,G_Compact SUV,09/09/2019,Auckland Airport,128.83,6/11/19 12:08 PM,1,NULL
G,G_Compact SUV,16/09/2019,Auckland Airport,133.57,6/11/19 12:08 PM,1,NULL
G,G_Compact SUV,01/07/2019,Auckland Airport,135.2,6/11/19 12:08 PM,1,NULL
G,G_Compact SUV,23/09/2019,Auckland Airport,135.49,6/11/19 12:08 PM,1,NULL
G,G_Compact SUV,08/07/2019,Auckland Airport,136.93,6/11/19 12:08 PM,1,NULL
G,G_Compact SUV,17/06/2019,Auckland Airport,138.32,6/11/19 12:08 PM,3,NULL
G,G_Compact SUV,17/06/2019,Auckland Airport,140.46,6/11/19 12:08 PM,2,NULL
G,G_Compact SUV,24/06/2019,Auckland Airport,161.2,6/11/19 12:08 PM,1,NULL
G,G_Compact SUV,30/09/2019,Auckland Airport,168.14,6/11/19 12:08 PM,1,NULL
G,G_Compact SUV,07/10/2019,Auckland Airport,168.14,6/11/19 12:08 PM,1,NULL
G,G_Compact SUV,17/06/2019,Auckland Airport,174.2,6/11/19 12:08 PM,1,NULL
G,G_Compact SUV,10/06/2019,Auckland Airport,176.57,6/11/19 12:08 PM,1,NULL
D,D_Compact,26/08/2019,Auckland Airport,59.55,6/11/19 12:08 PM,28,NULL
D,D_Compact,02/09/2019,Auckland Airport,59.78,6/11/19 12:08 PM,28,NULL
D,D_Compact,19/08/2019,Auckland Airport,60.18,6/11/19 12:08 PM,28,NULL
D,D_Compact,12/08/2019,Auckland Airport,60.21,6/11/19 12:08 PM,28,NULL
D,D_Compact,05/08/2019,Auckland Airport,60.45,6/11/19 12:08 PM,28,NULL
D,D_Compact,26/08/2019,Auckland Airport,60.55,6/11/19 12:08 PM,14,NULL
D,D_Compact,02/09/2019,Auckland Airport,60.78,6/11/19 12:08 PM,14,NULL
D,D_Compact,08/07/2019,Auckland Airport,60.92,6/11/19 12:08 PM,28,NULL
D,D_Compact,19/08/2019,Auckland Airport,61.18,6/11/19 12:08 PM,14,NULL
D,D_Compact,12/08/2019,Auckland Airport,61.21,6/11/19 12:08 PM,14,NULL
D,D_Compact,15/07/2019,Auckland Airport,61.42,6/11/19 12:08 PM,28,NULL
D,D_Compact,05/08/2019,Auckland Airport,61.45,6/11/19 12:08 PM,14,NULL
D,D_Compact,29/07/2019,Auckland Airport,61.53,6/11/19 12:08 PM,28,NULL
D,D_Compact,08/07/2019,Auckland Airport,61.92,6/11/19 12:08 PM,14,NULL
D,D_Compact,22/07/2019,Auckland Airport,62.3,6/11/19 12:08 PM,28,NULL
D,D_Compact,01/07/2019,Auckland Airport,62.34,6/11/19 12:08 PM,28,NULL
D,D_Compact,15/07/2019,Auckland Airport,62.42,6/11/19 12:08 PM,14,NULL
D,D_Compact,29/07/2019,Auckland Airport,62.53,6/11/19 12:08 PM,14,NULL
D,D_Compact,22/07/2019,Auckland Airport,63.3,6/11/19 12:08 PM,14,NULL
D,D_Compact,01/07/2019,Auckland Airport,63.34,6/11/19 12:08 PM,14,NULL
D,D_Compact,10/06/2019,Auckland Airport,64.67,6/11/19 12:08 PM,28,NULL
D,D_Compact,02/09/2019,Auckland Airport,65.08,6/11/19 12:08 PM,7,NULL
D,D_Compact,26/08/2019,Auckland Airport,65.11,6/11/19 12:08 PM,7,NULL
D,D_Compact,12/08/2019,Auckland Airport,65.48,6/11/19 12:08 PM,6,NULL
D,D_Compact,10/06/2019,Auckland Airport,65.67,6/11/19 12:08 PM,14,NULL
D,D_Compact,12/08/2019,Auckland Airport,65.77,6/11/19 12:08 PM,7,NULL
D,D_Compact,26/08/2019,Auckland Airport,65.82,6/11/19 12:08 PM,6,NULL
D,D_Compact,05/08/2019,Auckland Airport,66.03,6/11/19 12:08 PM,7,NULL
D,D_Compact,15/07/2019,Auckland Airport,66.07,6/11/19 12:08 PM,6,NULL
D,D_Compact,19/08/2019,Auckland Airport,66.11,6/11/19 12:08 PM,7,NULL
D,D_Compact,10/06/2019,Auckland Airport,66.16,6/11/19 12:08 PM,6,NULL
D,D_Compact,01/07/2019,Auckland Airport,66.34,6/11/19 12:08 PM,6,NULL
D,D_Compact,01/07/2019,Auckland Airport,66.35,6/11/19 12:08 PM,7,NULL
D,D_Compact,29/07/2019,Auckland Airport,66.47,6/11/19 12:08 PM,7,NULL
D,D_Compact,08/07/2019,Auckland Airport,66.66,6/11/19 12:08 PM,6,NULL
D,D_Compact,05/08/2019,Auckland Airport,66.7,6/11/19 12:08 PM,6,NULL
D,D_Compact,09/09/2019,Auckland Airport,66.94,6/11/19 12:08 PM,28,NULL
D,D_Compact,19/08/2019,Auckland Airport,66.95,6/11/19 12:08 PM,6,NULL
D,D_Compact,08/07/2019,Auckland Airport,67.37,6/11/19 12:08 PM,7,NULL
D,D_Compact,15/07/2019,Auckland Airport,67.59,6/11/19 12:08 PM,7,NULL
D,D_Compact,09/09/2019,Auckland Airport,67.94,6/11/19 12:08 PM,14,NULL
D,D_Compact,29/07/2019,Auckland Airport,68.1,6/11/19 12:08 PM,6,NULL
D,D_Compact,22/07/2019,Auckland Airport,68.16,6/11/19 12:08 PM,7,NULL
D,D_Compact,22/07/2019,Auckland Airport,68.59,6/11/19 12:08 PM,6,NULL
D,D_Compact,24/06/2019,Auckland Airport,68.9,6/11/19 12:08 PM,6,NULL
D,D_Compact,10/06/2019,Auckland Airport,68.95,6/11/19 12:08 PM,7,NULL
D,D_Compact,23/09/2019,Auckland Airport,69.24,6/11/19 12:08 PM,28,NULL
D,D_Compact,16/09/2019,Auckland Airport,69.58,6/11/19 12:08 PM,28,NULL
D,D_Compact,02/09/2019,Auckland Airport,69.71,6/11/19 12:08 PM,6,NULL
D,D_Compact,23/09/2019,Auckland Airport,70.24,6/11/19 12:08 PM,14,NULL
D,D_Compact,16/09/2019,Auckland Airport,70.58,6/11/19 12:08 PM,14,NULL
D,D_Compact,09/09/2019,Auckland Airport,71.52,6/11/19 12:08 PM,7,NULL
D,D_Compact,16/09/2019,Auckland Airport,72.26,6/11/19 12:08 PM,7,NULL
D,D_Compact,12/08/2019,Auckland Airport,73.45,6/11/19 12:08 PM,4,NULL
D,D_Compact,02/09/2019,Auckland Airport,73.72,6/11/19 12:08 PM,4,NULL
D,D_Compact,05/08/2019,Auckland Airport,73.86,6/11/19 12:08 PM,4,NULL
D,D_Compact,29/07/2019,Auckland Airport,74.05,6/11/19 12:08 PM,4,NULL
D,D_Compact,19/08/2019,Auckland Airport,74.42,6/11/19 12:08 PM,4,NULL
D,D_Compact,26/08/2019,Auckland Airport,74.42,6/11/19 12:08 PM,4,NULL
D,D_Compact,02/09/2019,Auckland Airport,74.84,6/11/19 12:08 PM,3,NULL
D,D_Compact,22/07/2019,Auckland Airport,75.41,6/11/19 12:08 PM,4,NULL
D,D_Compact,23/09/2019,Auckland Airport,75.6,6/11/19 12:08 PM,7,NULL
D,D_Compact,12/08/2019,Auckland Airport,76.12,6/11/19 12:08 PM,3,NULL
D,D_Compact,26/08/2019,Auckland Airport,76.26,6/11/19 12:08 PM,3,NULL
D,D_Compact,19/08/2019,Auckland Airport,76.29,6/11/19 12:08 PM,3,NULL
D,D_Compact,15/07/2019,Auckland Airport,76.5,6/11/19 12:08 PM,4,NULL
D,D_Compact,08/07/2019,Auckland Airport,78.22,6/11/19 12:08 PM,4,NULL
D,D_Compact,05/08/2019,Auckland Airport,78.61,6/11/19 12:08 PM,3,NULL
D,D_Compact,17/06/2019,Auckland Airport,78.77,6/11/19 12:08 PM,7,NULL
D,D_Compact,09/09/2019,Auckland Airport,79.36,6/11/19 12:08 PM,6,NULL
D,D_Compact,16/09/2019,Auckland Airport,79.9,6/11/19 12:08 PM,6,NULL
D,D_Compact,23/09/2019,Auckland Airport,80.21,6/11/19 12:08 PM,4,NULL
D,D_Compact,24/06/2019,Auckland Airport,80.26,6/11/19 12:08 PM,4,NULL
D,D_Compact,29/07/2019,Auckland Airport,80.93,6/11/19 12:08 PM,3,NULL
D,D_Compact,10/06/2019,Auckland Airport,80.96,6/11/19 12:08 PM,4,NULL
D,D_Compact,17/06/2019,Auckland Airport,81.17,6/11/19 12:08 PM,6,NULL
D,D_Compact,16/09/2019,Auckland Airport,81.35,6/11/19 12:08 PM,4,NULL
D,D_Compact,09/09/2019,Auckland Airport,81.36,6/11/19 12:08 PM,4,NULL
D,D_Compact,01/07/2019,Auckland Airport,81.54,6/11/19 12:08 PM,4,NULL
D,D_Compact,02/09/2019,Auckland Airport,81.94,6/11/19 12:08 PM,2,NULL
D,D_Compact,23/09/2019,Auckland Airport,82.45,6/11/19 12:08 PM,6,NULL
D,D_Compact,26/08/2019,Auckland Airport,83.34,6/11/19 12:08 PM,2,NULL
D,D_Compact,09/09/2019,Auckland Airport,84.19,6/11/19 12:08 PM,3,NULL
D,D_Compact,16/09/2019,Auckland Airport,84.56,6/11/19 12:08 PM,3,NULL
D,D_Compact,22/07/2019,Auckland Airport,85.15,6/11/19 12:08 PM,3,NULL
D,D_Compact,15/07/2019,Auckland Airport,85.3,6/11/19 12:08 PM,3,NULL
D,D_Compact,12/08/2019,Auckland Airport,86.24,6/11/19 12:08 PM,2,NULL
D,D_Compact,19/08/2019,Auckland Airport,86.29,6/11/19 12:08 PM,2,NULL
D,D_Compact,05/08/2019,Auckland Airport,87.15,6/11/19 12:08 PM,2,NULL
D,D_Compact,23/09/2019,Auckland Airport,87.34,6/11/19 12:08 PM,3,NULL
D,D_Compact,08/07/2019,Auckland Airport,88.17,6/11/19 12:08 PM,3,NULL
D,D_Compact,30/09/2019,Auckland Airport,88.66,6/11/19 12:08 PM,28,NULL
D,D_Compact,07/10/2019,Auckland Airport,88.66,6/11/19 12:08 PM,28,NULL
D,D_Compact,29/07/2019,Auckland Airport,89.5,6/11/19 12:08 PM,2,NULL
D,D_Compact,07/10/2019,Auckland Airport,89.66,6/11/19 12:08 PM,14,NULL
D,D_Compact,30/09/2019,Auckland Airport,89.66,6/11/19 12:08 PM,14,NULL
D,D_Compact,22/07/2019,Auckland Airport,89.96,6/11/19 12:08 PM,2,NULL
D,D_Compact,15/07/2019,Auckland Airport,91.78,6/11/19 12:08 PM,2,NULL
D,D_Compact,01/07/2019,Auckland Airport,92.55,6/11/19 12:08 PM,3,NULL
D,D_Compact,16/09/2019,Auckland Airport,92.59,6/11/19 12:08 PM,2,NULL
D,D_Compact,30/09/2019,Auckland Airport,93.41,6/11/19 12:08 PM,7,NULL
D,D_Compact,07/10/2019,Auckland Airport,94.32,6/11/19 12:08 PM,7,NULL
D,D_Compact,24/06/2019,Auckland Airport,95.04,6/11/19 12:08 PM,7,NULL
D,D_Compact,08/07/2019,Auckland Airport,95.37,6/11/19 12:08 PM,2,NULL
D,D_Compact,09/09/2019,Auckland Airport,95.61,6/11/19 12:08 PM,2,NULL
D,D_Compact,10/06/2019,Auckland Airport,96.81,6/11/19 12:08 PM,3,NULL
D,D_Compact,01/07/2019,Auckland Airport,99.6,6/11/19 12:08 PM,2,NULL
D,D_Compact,07/10/2019,Auckland Airport,100.14,6/11/19 12:08 PM,6,NULL
D,D_Compact,30/09/2019,Auckland Airport,100.14,6/11/19 12:08 PM,6,NULL
D,D_Compact,23/09/2019,Auckland Airport,101.12,6/11/19 12:08 PM,2,NULL
D,D_Compact,24/06/2019,Auckland Airport,102.09,6/11/19 12:08 PM,3,NULL
D,D_Compact,10/06/2019,Auckland Airport,102.41,6/11/19 12:08 PM,2,NULL
D,D_Compact,30/09/2019,Auckland Airport,104.45,6/11/19 12:08 PM,4,NULL
D,D_Compact,07/10/2019,Auckland Airport,104.45,6/11/19 12:08 PM,4,NULL
D,D_Compact,17/06/2019,Auckland Airport,105,6/11/19 12:08 PM,28,NULL
D,D_Compact,17/06/2019,Auckland Airport,106,6/11/19 12:08 PM,14,NULL
D,D_Compact,02/09/2019,Auckland Airport,111.84,6/11/19 12:08 PM,1,NULL
D,D_Compact,24/06/2019,Auckland Airport,115.59,6/11/19 12:08 PM,2,NULL
D,D_Compact,26/08/2019,Auckland Airport,118.17,6/11/19 12:08 PM,1,NULL
D,D_Compact,07/10/2019,Auckland Airport,118.21,6/11/19 12:08 PM,3,NULL
D,D_Compact,30/09/2019,Auckland Airport,118.21,6/11/19 12:08 PM,3,NULL
D,D_Compact,19/08/2019,Auckland Airport,118.52,6/11/19 12:08 PM,1,NULL
D,D_Compact,05/08/2019,Auckland Airport,118.81,6/11/19 12:08 PM,1,NULL
D,D_Compact,12/08/2019,Auckland Airport,119.2,6/11/19 12:08 PM,1,NULL
D,D_Compact,29/07/2019,Auckland Airport,123.18,6/11/19 12:08 PM,1,NULL
D,D_Compact,15/07/2019,Auckland Airport,127.95,6/11/19 12:08 PM,1,NULL
D,D_Compact,24/06/2019,Auckland Airport,128.32,6/11/19 12:08 PM,28,NULL
D,D_Compact,22/07/2019,Auckland Airport,128.54,6/11/19 12:08 PM,1,NULL
D,D_Compact,24/06/2019,Auckland Airport,129.32,6/11/19 12:08 PM,14,NULL
D,D_Compact,23/09/2019,Auckland Airport,131.5,6/11/19 12:08 PM,1,NULL
D,D_Compact,08/07/2019,Auckland Airport,132.18,6/11/19 12:08 PM,1,NULL
D,D_Compact,30/09/2019,Auckland Airport,132.8,6/11/19 12:08 PM,2,NULL
D,D_Compact,07/10/2019,Auckland Airport,132.8,6/11/19 12:08 PM,2,NULL
D,D_Compact,01/07/2019,Auckland Airport,135.7,6/11/19 12:08 PM,1,NULL
D,D_Compact,09/09/2019,Auckland Airport,135.76,6/11/19 12:08 PM,1,NULL
D,D_Compact,16/09/2019,Auckland Airport,138.04,6/11/19 12:08 PM,1,NULL
D,D_Compact,17/06/2019,Auckland Airport,141.64,6/11/19 12:08 PM,4,NULL
D,D_Compact,17/06/2019,Auckland Airport,149.75,6/11/19 12:08 PM,3,NULL
D,D_Compact,17/06/2019,Auckland Airport,153.22,6/11/19 12:08 PM,2,NULL
D,D_Compact,24/06/2019,Auckland Airport,156.71,6/11/19 12:08 PM,1,NULL
D,D_Compact,10/06/2019,Auckland Airport,159.15,6/11/19 12:08 PM,1,NULL
D,D_Compact,30/09/2019,Auckland Airport,165.45,6/11/19 12:08 PM,1,NULL
D,D_Compact,07/10/2019,Auckland Airport,165.71,6/11/19 12:08 PM,1,NULL
D,D_Compact,17/06/2019,Auckland Airport,174.75,6/11/19 12:08 PM,1,NULL
K,K_8 Seater,19/08/2019,Auckland Airport,95.86,6/11/19 12:08 PM,28,NULL
K,K_8 Seater,12/08/2019,Auckland Airport,96.16,6/11/19 12:08 PM,28,NULL
K,K_8 Seater,05/08/2019,Auckland Airport,96.46,6/11/19 12:08 PM,28,NULL
K,K_8 Seater,19/08/2019,Auckland Airport,96.86,6/11/19 12:08 PM,14,NULL
K,K_8 Seater,12/08/2019,Auckland Airport,97.16,6/11/19 12:08 PM,14,NULL
K,K_8 Seater,05/08/2019,Auckland Airport,97.46,6/11/19 12:08 PM,14,NULL
K,K_8 Seater,26/08/2019,Auckland Airport,99.76,6/11/19 12:08 PM,28,NULL
K,K_8 Seater,26/08/2019,Auckland Airport,100.76,6/11/19 12:08 PM,14,NULL
K,K_8 Seater,10/06/2019,Auckland Airport,102.23,6/11/19 12:08 PM,28,NULL
K,K_8 Seater,29/07/2019,Auckland Airport,102.39,6/11/19 12:08 PM,28,NULL
K,K_8 Seater,15/07/2019,Auckland Airport,102.67,6/11/19 12:08 PM,28,NULL
K,K_8 Seater,17/06/2019,Auckland Airport,103.14,6/11/19 12:08 PM,28,NULL
K,K_8 Seater,10/06/2019,Auckland Airport,103.23,6/11/19 12:08 PM,14,NULL
K,K_8 Seater,29/07/2019,Auckland Airport,103.39,6/11/19 12:08 PM,14,NULL
K,K_8 Seater,15/07/2019,Auckland Airport,103.67,6/11/19 12:08 PM,14,NULL
K,K_8 Seater,17/06/2019,Auckland Airport,104.14,6/11/19 12:08 PM,14,NULL
K,K_8 Seater,08/07/2019,Auckland Airport,104.59,6/11/19 12:08 PM,28,NULL
K,K_8 Seater,24/06/2019,Auckland Airport,105.5,6/11/19 12:08 PM,28,NULL
K,K_8 Seater,08/07/2019,Auckland Airport,105.59,6/11/19 12:08 PM,14,NULL
K,K_8 Seater,12/08/2019,Auckland Airport,105.71,6/11/19 12:08 PM,7,NULL
K,K_8 Seater,19/08/2019,Auckland Airport,105.71,6/11/19 12:08 PM,7,NULL
K,K_8 Seater,05/08/2019,Auckland Airport,105.81,6/11/19 12:08 PM,7,NULL
K,K_8 Seater,12/08/2019,Auckland Airport,106.34,6/11/19 12:08 PM,6,NULL
K,K_8 Seater,24/06/2019,Auckland Airport,106.5,6/11/19 12:08 PM,14,NULL
K,K_8 Seater,01/07/2019,Auckland Airport,106.65,6/11/19 12:08 PM,28,NULL
K,K_8 Seater,01/07/2019,Auckland Airport,107.65,6/11/19 12:08 PM,14,NULL
K,K_8 Seater,10/06/2019,Auckland Airport,107.74,6/11/19 12:08 PM,6,NULL
K,K_8 Seater,22/07/2019,Auckland Airport,108.17,6/11/19 12:08 PM,28,NULL
K,K_8 Seater,19/08/2019,Auckland Airport,108.81,6/11/19 12:08 PM,6,NULL
K,K_8 Seater,05/08/2019,Auckland Airport,108.89,6/11/19 12:08 PM,6,NULL
K,K_8 Seater,22/07/2019,Auckland Airport,109.17,6/11/19 12:08 PM,14,NULL
K,K_8 Seater,26/08/2019,Auckland Airport,110.71,6/11/19 12:08 PM,7,NULL
K,K_8 Seater,29/07/2019,Auckland Airport,111.86,6/11/19 12:08 PM,7,NULL
K,K_8 Seater,08/07/2019,Auckland Airport,112.89,6/11/19 12:08 PM,6,NULL
K,K_8 Seater,01/07/2019,Auckland Airport,113.3,6/11/19 12:08 PM,6,NULL
K,K_8 Seater,26/08/2019,Auckland Airport,113.92,6/11/19 12:08 PM,6,NULL
K,K_8 Seater,15/07/2019,Auckland Airport,114.5,6/11/19 12:08 PM,6,NULL
K,K_8 Seater,15/07/2019,Auckland Airport,114.62,6/11/19 12:08 PM,7,NULL
K,K_8 Seater,17/06/2019,Auckland Airport,114.86,6/11/19 12:08 PM,6,NULL
K,K_8 Seater,29/07/2019,Auckland Airport,115.06,6/11/19 12:08 PM,6,NULL
K,K_8 Seater,02/09/2019,Auckland Airport,115.17,6/11/19 12:08 PM,28,NULL
K,K_8 Seater,09/09/2019,Auckland Airport,115.17,6/11/19 12:08 PM,28,NULL
K,K_8 Seater,16/09/2019,Auckland Airport,115.17,6/11/19 12:08 PM,28,NULL
K,K_8 Seater,23/09/2019,Auckland Airport,115.45,6/11/19 12:08 PM,28,NULL
K,K_8 Seater,24/06/2019,Auckland Airport,115.67,6/11/19 12:08 PM,6,NULL
K,K_8 Seater,10/06/2019,Auckland Airport,115.86,6/11/19 12:08 PM,7,NULL
K,K_8 Seater,16/09/2019,Auckland Airport,116.17,6/11/19 12:08 PM,14,NULL
K,K_8 Seater,09/09/2019,Auckland Airport,116.17,6/11/19 12:08 PM,14,NULL
K,K_8 Seater,02/09/2019,Auckland Airport,116.17,6/11/19 12:08 PM,14,NULL
K,K_8 Seater,23/09/2019,Auckland Airport,116.45,6/11/19 12:08 PM,14,NULL
K,K_8 Seater,17/06/2019,Auckland Airport,117.01,6/11/19 12:08 PM,7,NULL
K,K_8 Seater,08/07/2019,Auckland Airport,117.65,6/11/19 12:08 PM,7,NULL
K,K_8 Seater,22/07/2019,Auckland Airport,118.9,6/11/19 12:08 PM,7,NULL
K,K_8 Seater,24/06/2019,Auckland Airport,119.43,6/11/19 12:08 PM,7,NULL
K,K_8 Seater,01/07/2019,Auckland Airport,119.49,6/11/19 12:08 PM,7,NULL
K,K_8 Seater,12/08/2019,Auckland Airport,122.91,6/11/19 12:08 PM,4,NULL
K,K_8 Seater,09/09/2019,Auckland Airport,123.34,6/11/19 12:08 PM,7,NULL
K,K_8 Seater,02/09/2019,Auckland Airport,123.34,6/11/19 12:08 PM,7,NULL
K,K_8 Seater,16/09/2019,Auckland Airport,123.34,6/11/19 12:08 PM,7,NULL
K,K_8 Seater,05/08/2019,Auckland Airport,123.44,6/11/19 12:08 PM,4,NULL
K,K_8 Seater,12/08/2019,Auckland Airport,123.45,6/11/19 12:08 PM,3,NULL
K,K_8 Seater,23/09/2019,Auckland Airport,123.69,6/11/19 12:08 PM,7,NULL
K,K_8 Seater,19/08/2019,Auckland Airport,123.98,6/11/19 12:08 PM,4,NULL
K,K_8 Seater,19/08/2019,Auckland Airport,124.32,6/11/19 12:08 PM,3,NULL
K,K_8 Seater,22/07/2019,Auckland Airport,126.45,6/11/19 12:08 PM,6,NULL
K,K_8 Seater,29/07/2019,Auckland Airport,127.66,6/11/19 12:08 PM,4,NULL
K,K_8 Seater,05/08/2019,Auckland Airport,128.41,6/11/19 12:08 PM,3,NULL
K,K_8 Seater,23/09/2019,Auckland Airport,129.55,6/11/19 12:08 PM,6,NULL
K,K_8 Seater,16/09/2019,Auckland Airport,129.65,6/11/19 12:08 PM,6,NULL
K,K_8 Seater,02/09/2019,Auckland Airport,129.65,6/11/19 12:08 PM,6,NULL
K,K_8 Seater,09/09/2019,Auckland Airport,129.65,6/11/19 12:08 PM,6,NULL
K,K_8 Seater,15/07/2019,Auckland Airport,129.91,6/11/19 12:08 PM,4,NULL
K,K_8 Seater,08/07/2019,Auckland Airport,130.15,6/11/19 12:08 PM,4,NULL
K,K_8 Seater,26/08/2019,Auckland Airport,130.98,6/11/19 12:08 PM,4,NULL
K,K_8 Seater,26/08/2019,Auckland Airport,131.32,6/11/19 12:08 PM,3,NULL
K,K_8 Seater,10/06/2019,Auckland Airport,133.16,6/11/19 12:08 PM,4,NULL
K,K_8 Seater,01/07/2019,Auckland Airport,133.97,6/11/19 12:08 PM,4,NULL
K,K_8 Seater,15/07/2019,Auckland Airport,135.31,6/11/19 12:08 PM,3,NULL
K,K_8 Seater,29/07/2019,Auckland Airport,135.44,6/11/19 12:08 PM,3,NULL
K,K_8 Seater,24/06/2019,Auckland Airport,136.73,6/11/19 12:08 PM,4,NULL
K,K_8 Seater,09/09/2019,Auckland Airport,137.11,6/11/19 12:08 PM,4,NULL
K,K_8 Seater,22/07/2019,Auckland Airport,139.21,6/11/19 12:08 PM,4,NULL
K,K_8 Seater,17/06/2019,Auckland Airport,140.05,6/11/19 12:08 PM,4,NULL
K,K_8 Seater,12/08/2019,Auckland Airport,140.14,6/11/19 12:08 PM,2,NULL
K,K_8 Seater,08/07/2019,Auckland Airport,140.19,6/11/19 12:08 PM,3,NULL
K,K_8 Seater,30/09/2019,Auckland Airport,140.8,6/11/19 12:08 PM,28,NULL
K,K_8 Seater,07/10/2019,Auckland Airport,140.8,6/11/19 12:08 PM,28,NULL
K,K_8 Seater,23/09/2019,Auckland Airport,141.58,6/11/19 12:08 PM,4,NULL
K,K_8 Seater,16/09/2019,Auckland Airport,141.74,6/11/19 12:08 PM,4,NULL
K,K_8 Seater,02/09/2019,Auckland Airport,141.74,6/11/19 12:08 PM,4,NULL
K,K_8 Seater,07/10/2019,Auckland Airport,141.8,6/11/19 12:08 PM,14,NULL
K,K_8 Seater,30/09/2019,Auckland Airport,141.8,6/11/19 12:08 PM,14,NULL
K,K_8 Seater,01/07/2019,Auckland Airport,142.82,6/11/19 12:08 PM,3,NULL
K,K_8 Seater,19/08/2019,Auckland Airport,143.24,6/11/19 12:08 PM,2,NULL
K,K_8 Seater,22/07/2019,Auckland Airport,143.84,6/11/19 12:08 PM,3,NULL
K,K_8 Seater,05/08/2019,Auckland Airport,145.3,6/11/19 12:08 PM,2,NULL
K,K_8 Seater,07/10/2019,Auckland Airport,146.52,6/11/19 12:08 PM,7,NULL
K,K_8 Seater,30/09/2019,Auckland Airport,146.52,6/11/19 12:08 PM,7,NULL
K,K_8 Seater,02/09/2019,Auckland Airport,147.75,6/11/19 12:08 PM,3,NULL
K,K_8 Seater,09/09/2019,Auckland Airport,147.75,6/11/19 12:08 PM,3,NULL
K,K_8 Seater,16/09/2019,Auckland Airport,147.75,6/11/19 12:08 PM,3,NULL
K,K_8 Seater,23/09/2019,Auckland Airport,147.79,6/11/19 12:08 PM,3,NULL
K,K_8 Seater,15/07/2019,Auckland Airport,149.62,6/11/19 12:08 PM,2,NULL
K,K_8 Seater,26/08/2019,Auckland Airport,150.5,6/11/19 12:08 PM,2,NULL
K,K_8 Seater,29/07/2019,Auckland Airport,150.57,6/11/19 12:08 PM,2,NULL
K,K_8 Seater,08/07/2019,Auckland Airport,151.49,6/11/19 12:08 PM,2,NULL
K,K_8 Seater,24/06/2019,Auckland Airport,154.61,6/11/19 12:08 PM,3,NULL
K,K_8 Seater,01/07/2019,Auckland Airport,156.16,6/11/19 12:08 PM,2,NULL
K,K_8 Seater,22/07/2019,Auckland Airport,157.56,6/11/19 12:08 PM,2,NULL
K,K_8 Seater,07/10/2019,Auckland Airport,164.33,6/11/19 12:08 PM,6,NULL
K,K_8 Seater,17/06/2019,Auckland Airport,164.44,6/11/19 12:08 PM,3,NULL
K,K_8 Seater,30/09/2019,Auckland Airport,164.54,6/11/19 12:08 PM,6,NULL
K,K_8 Seater,10/06/2019,Auckland Airport,165.59,6/11/19 12:08 PM,3,NULL
K,K_8 Seater,24/06/2019,Auckland Airport,167.07,6/11/19 12:08 PM,2,NULL
K,K_8 Seater,10/06/2019,Auckland Airport,167.1,6/11/19 12:08 PM,2,NULL
K,K_8 Seater,23/09/2019,Auckland Airport,168.56,6/11/19 12:08 PM,2,NULL
K,K_8 Seater,16/09/2019,Auckland Airport,169.25,6/11/19 12:08 PM,2,NULL
K,K_8 Seater,09/09/2019,Auckland Airport,169.25,6/11/19 12:08 PM,2,NULL
K,K_8 Seater,02/09/2019,Auckland Airport,169.25,6/11/19 12:08 PM,2,NULL
K,K_8 Seater,30/09/2019,Auckland Airport,170.41,6/11/19 12:08 PM,4,NULL
K,K_8 Seater,07/10/2019,Auckland Airport,170.41,6/11/19 12:08 PM,4,NULL
K,K_8 Seater,05/08/2019,Auckland Airport,172.79,6/11/19 12:08 PM,1,NULL
K,K_8 Seater,19/08/2019,Auckland Airport,173.35,6/11/19 12:08 PM,1,NULL
K,K_8 Seater,17/06/2019,Auckland Airport,173.89,6/11/19 12:08 PM,2,NULL
K,K_8 Seater,12/08/2019,Auckland Airport,175.31,6/11/19 12:08 PM,1,NULL
K,K_8 Seater,07/10/2019,Auckland Airport,177.16,6/11/19 12:08 PM,3,NULL
K,K_8 Seater,23/09/2019,Auckland Airport,177.81,6/11/19 12:08 PM,1,NULL
K,K_8 Seater,02/09/2019,Auckland Airport,178.01,6/11/19 12:08 PM,1,NULL
K,K_8 Seater,09/09/2019,Auckland Airport,178.11,6/11/19 12:08 PM,1,NULL
K,K_8 Seater,16/09/2019,Auckland Airport,178.11,6/11/19 12:08 PM,1,NULL
K,K_8 Seater,26/08/2019,Auckland Airport,178.52,6/11/19 12:08 PM,1,NULL
K,K_8 Seater,29/07/2019,Auckland Airport,178.83,6/11/19 12:08 PM,1,NULL
K,K_8 Seater,30/09/2019,Auckland Airport,179.66,6/11/19 12:08 PM,3,NULL
K,K_8 Seater,15/07/2019,Auckland Airport,184.22,6/11/19 12:08 PM,1,NULL
K,K_8 Seater,22/07/2019,Auckland Airport,185.71,6/11/19 12:08 PM,1,NULL
K,K_8 Seater,08/07/2019,Auckland Airport,188.81,6/11/19 12:08 PM,1,NULL
K,K_8 Seater,01/07/2019,Auckland Airport,193.58,6/11/19 12:08 PM,1,NULL
K,K_8 Seater,07/10/2019,Auckland Airport,198.6,6/11/19 12:08 PM,2,NULL
K,K_8 Seater,24/06/2019,Auckland Airport,201.08,6/11/19 12:08 PM,1,NULL
K,K_8 Seater,30/09/2019,Auckland Airport,201.1,6/11/19 12:08 PM,2,NULL
K,K_8 Seater,17/06/2019,Auckland Airport,215.8,6/11/19 12:08 PM,1,NULL
K,K_8 Seater,10/06/2019,Auckland Airport,243.39,6/11/19 12:08 PM,1,NULL
K,K_8 Seater,30/09/2019,Auckland Airport,260.44,6/11/19 12:08 PM,1,NULL
K,K_8 Seater,07/10/2019,Auckland Airport,260.44,6/11/19 12:08 PM,1,NULL