CompanyName,LocationName,Environment,VRR,APLOC,Admin,GST
Hertz Car Rental NZ,Auckland Airport,Hertzrentals,NA,45,NA,15
Hertz Car Rental NZ,Auckland City,Hertzrentals,NA,0,NA,15
Hertz Car Rental NZ,Christchurch Airport,Hertzrentals,NA,45,NA,15
Hertz Car Rental NZ,Christchurch City,Hertzrentals,NA,0,NA,15
Hertz Car Rental NZ,Queenstown Airport,Hertzrentals,NA,45,NA,15
Hertz Car Rental NZ,Queenstown City,Hertzrentals,NA,0,NA,15
Hertz Car Rental NZ,Wellington Airport,Hertzrentals,NA,45,NA,15
Hertz Car Rental NZ,Wellington City,Hertzrentals,NA,0,NA,15